^E:\COURSEENDPROJECT\C\MISSIONC\MISSIONC\CUSTOMER.CPP|E:\COURSEENDPROJECT\C\MISSIONC\MISSIONC\DATE.CPP|E:\COURSEENDPROJECT\C\MISSIONC\MISSIONC\ITEMLIST.CPP|E:\COURSEENDPROJECT\C\MISSIONC\MISSIONC\MAIN.CPP
E:\COURSEENDPROJECT\C\MISSIONC\MISSIONC\DEBUG\VC120.PDB
E:\COURSEENDPROJECT\C\MISSIONC\MISSIONC\DEBUG\VC120.IDB
E:\COURSEENDPROJECT\C\MISSIONC\MISSIONC\DEBUG\CUSTOMER.OBJ
E:\COURSEENDPROJECT\C\MISSIONC\MISSIONC\DEBUG\DATE.OBJ
E:\COURSEENDPROJECT\C\MISSIONC\MISSIONC\DEBUG\ITEMLIST.OBJ
E:\COURSEENDPROJECT\C\MISSIONC\MISSIONC\DEBUG\MAIN.OBJ
^E:\COURSEENDPROJECT\C\MISSIONC\MISSIONC\CUSTOMER.CPP
E:\COURSEENDPROJECT\C\MISSIONC\MISSIONC\DEBUG\VC120.PDB
^E:\COURSEENDPROJECT\C\MISSIONC\MISSIONC\DATE.CPP
E:\COURSEENDPROJECT\C\MISSIONC\MISSIONC\DEBUG\VC120.PDB
^E:\COURSEENDPROJECT\C\MISSIONC\MISSIONC\ITEMLIST.CPP
E:\COURSEENDPROJECT\C\MISSIONC\MISSIONC\DEBUG\VC120.PDB
^E:\COURSEENDPROJECT\C\MISSIONC\MISSIONC\MAIN.CPP
E:\COURSEENDPROJECT\C\MISSIONC\MISSIONC\DEBUG\VC120.PDB
E:\COURSEENDPROJECT\C\MISSIONC\MISSIONC\DEBUG\VC120.IDB
E:\COURSEENDPROJECT\C\MISSIONC\MISSIONC\DEBUG\MAIN.OBJ
^E:\COURSEENDPROJECT\C\MISSIONC\MISSIONC\ITEMLIST.CPP|E:\COURSEENDPROJECT\C\MISSIONC\MISSIONC\MAIN.CPP
E:\COURSEENDPROJECT\C\MISSIONC\MISSIONC\DEBUG\VC120.PDB
E:\COURSEENDPROJECT\C\MISSIONC\MISSIONC\DEBUG\VC120.IDB
E:\COURSEENDPROJECT\C\MISSIONC\MISSIONC\DEBUG\ITEMLIST.OBJ
