^E:\COURSEENDPROJECT\C\MISSIONC\MISSIONC\DEBUG\CUSTOMER.OBJ|E:\COURSEENDPROJECT\C\MISSIONC\MISSIONC\DEBUG\DATE.OBJ|E:\COURSEENDPROJECT\C\MISSIONC\MISSIONC\DEBUG\ITEMLIST.OBJ|E:\COURSEENDPROJECT\C\MISSIONC\MISSIONC\DEBUG\MAIN.OBJ
E:\COURSEENDPROJECT\C\MISSIONC\DEBUG\MISSIONC.ILK
E:\COURSEENDPROJECT\C\MISSIONC\DEBUG\MISSIONC.EXE
E:\COURSEENDPROJECT\C\MISSIONC\DEBUG\MISSIONC.PDB
